[gd_scene load_steps=3 format=3 uid="uid://t0r2w1ik4uxf"]

[sub_resource type="SphereShape3D" id="SphereShape3D_lrq2l"]

[sub_resource type="SphereMesh" id="SphereMesh_to2qy"]

[node name="Projectile" type="RigidBody3D"]

[node name="CollisionShape3D" type="CollisionShape3D" parent="."]
shape = SubResource("SphereShape3D_lrq2l")

[node name="MeshInstance3D" type="MeshInstance3D" parent="."]
mesh = SubResource("SphereMesh_to2qy")
